{"page":1,"per_page":20,"total":30,"total_pages":40,"data":[{"id":3,"flightName":"AirIndia","Country":"India","Destinations":"58","URL":"https:\\/\\/en.wikipedia.org\\/wiki\\/Air_India"},{"id":18,"flightName":"AirIndia","Country":"India","Destinations":"55","URL":"https:\\/\\/en.wikipedia.org\\/wiki\\/Air_India"},{"id":22,"flightName":"AirSara","Country":"India","Destinations":"608","URL":"https:\\/\\/en.wikipedia.org\\/wiki\\/Air_India"},{"id":33,"flightName":"AirIndia","Country":"India","Destinations":"20","URL":"https:\\/\\/en.wikipedia.org\\/wiki\\/Air_India"},{"id":36,"flightName":"Srilankan AriLines","Country":"India","Destinations":"56","URL":"https:\\/\\/en.wikipedia.org\\/wiki\\/Sri_Lanka"},{"id":42,"flightName":"AirIndia.Raj","Country":"India","Destinations":"98","URL":"https:\\/\\/en.wikipedia.org\\/wiki\\/Air_India"}],"support":{"url":"https:\\/\\/omrbranch.com","text":"For Joining Automation Course, Please Contact-Velmurugan 9944152058"}}